{
  "users": [
    {
      "username": "bvuicik",
      "points": 121,
      "email": "bvuicik@gmail.com",
      "color": "#8D29CC"
    },
    {
      "username": "hazger",
      "points": 125,
      "email": "hazger@gmail.com",
      "color": "#2952CC"
    },
    {
      "username": "gomes.lmc",
      "points": 117,
      "email": "gomes.lmc@gmail.com",
      "color": "#29CC3F"
    },
    {
      "username": "asilva",
      "points": 120,
      "email": "anderson.silva@gmail.com",
      "color": "#CC2929"
    },
    {
      "username": "ssantos",
      "points": 427,
      "email": "silvio.santos@gmail.com",
      "color": "#3F66BA"
    },
    {
      "username": "ernesto.lindstaedt",
      "points": 620,
      "email": "linds.unisinos.ead@gmail.com",
      "color": "#218CEB"
    },
    {
      "username": "novato",
      "points": 3,
      "email": "novato@gmail.com",
      "color": "#FFEB0D"
    },
    {
      "username": "aldo",
      "points": 89,
      "email": "jose.aldo@gmail.com",
      "color": "#0DDFFF"
    },
    {
      "username": "bm",
      "points": 352,
      "email": "batman@gmail.com",
      "color": "#FFC117"
    },
    {
      "username": "barry.allen",
      "points": 867,
      "email": "barry.allen@gmail.com",
      "color": "#FFAA0D"
    }
  ]
}