{
  "wordOptions": [
    {
      "word": "crachá",
      "level": "Fácil",
      "points": 1,
      "color": "#8AC007"
    },
    {
      "word": "bombeiros",
      "level": "Médio",
      "points": 3,
      "color": "#FFB81E"
    },
    {
      "word": "Led Zeppelin",
      "level": "Difícil",
      "points": 7,
      "color": "#D71D1D"
    }
  ]
}