{
  "availableColors": [
    {
      "id": 7,
      "name": "color-lightseagreen",
      "desc": "LightSeaGreen",
      "details": "#20b2aa",
      "price": 60
    },
    {
      "id": 8,
      "name": "color-pink",
      "desc": "Rosa",
      "details": "#FF0099",
      "price": 15
    },
    {
      "id": 9,
      "name": "color-brown",
      "desc": "Marron",
      "details": "#673737",
      "price": 50
    },
    {
      "id": 10,
      "name": "color-purple",
      "desc": "Roxo",
      "details": "#800080",
      "price": 15
    },
    {
      "id": 11,
      "name": "color-cyan",
      "desc": "Ciano",
      "details": "#33FFFF",
      "price": 20
    },
    {
      "id": 12,
      "name": "color-gray",
      "desc": "Cinza",
      "details": "#9C9EA0",
      "price": 15
    },
    {
      "id": 13,
      "name": "color-navy",
      "desc": "Azul Marinho",
      "details": "#073CA5",
      "price": 40
    },
    {
      "id": 14,
      "name": "color-cadetblue",
      "desc": "CadetBlue",
      "details": "#5D9EA1",
      "price": 50
    },
    {
      "id": 15,
      "name": "color-coral",
      "desc": "Coral",
      "details": "#ff7f50",
      "price": 35
    },
    {
      "id": 16,
      "name": "color-darkolivegreen1",
      "desc": "DarkOliveGreen1",
      "details": "#caff70",
      "price": 30
    },
    {
      "id": 17,
      "name": "color-deepskyblue3",
      "desc": "DeepSkyBlue3",
      "details": "#009acd",
      "price": 50
    },
    {
      "id": 18,
      "name": "color-deeppink3",
      "desc": "DeepPink3",
      "details": "#cd1076",
      "price": 25
    },
    {
      "id": 19,
      "name": "color-khaki",
      "desc": "Khaki",
      "details": "#f0e68c",
      "price": 25
    },
    {
      "id": 20,
      "name": "color-lavender",
      "desc": "Lavanda",
      "details": "#e6e6fa",
      "price": 5
    }
  ],
  "availableTools": [
    {
      "id": 2,
      "name": "paint-brush-2",
      "desc": "Pincel 2",
      "details": 10,
      "price": 60
    },
    {
      "id": 3,
      "name": "paint-brush-3",
      "desc": "Pincel 3",
      "details": 20,
      "price": 65
    }
  ]
}