{
  "username": "testing",
  "points": 125,
  "email": "testing@gmail.com",
  "availableColors": [ 
  	{"id": 1, "name": "color-yellow", "desc": "Amarelo", "details": "#FFFF00"}, 
  	{"id": 2, "name": "color-green", "desc": "Verde", "details": "#32CD32"}, 
  	{"id": 3, "name": "color-blue", "desc": "Azul", "details": "#1E90FF"},
  	{"id": 4, "name": "color-black", "desc": "Preto", "details": "#000000"},
  	{"id": 5, "name": "color-orange", "desc": "Laranja", "details": "#FF9900"},
  	{"id": 6, "name": "color-red", "desc": "Vermelho", "details": "#FF0000"}],
  "availableTools": [
  	{"id": 1, "name": "paint-brush-1", "desc": "Pincel 1", "details": 5}
  ]
}